<?xml version="1.0" encoding="utf-8"?>
<!-- Generator: Adobe Illustrator 18.1.1, SVG Export Plug-In . SVG Version: 6.00 Build 0)  -->
<svg version="1.1" id="XMLID_1_" xmlns="http://www.w3.org/2000/svg" xmlns:xlink="http://www.w3.org/1999/xlink" x="0px" y="0px"
	 viewBox="0 0 185.5019 185.5" enable-background="new 0 0 185.5019 185.5" xml:space="preserve">
<g id="Haskell">
	<circle fill="#F9B417" cx="92.751" cy="92.75" r="92.751"/>
	<g>
		<path fill="#D1D3D4" d="M92.9238,155.9541c-1.8613,0-3.7656-0.0508-5.6611-0.1504c-8.1035-0.4229-14.9688-1.623-20.9883-3.6699
			c-3.9473-1.3408-6.9248-2.7764-9.3711-4.5195c-3.1855-2.2676-5.1152-4.7666-5.7344-7.4268l-0.0312-0.1309l0.1006-0.0303
			l-0.1016,0.0244c-0.04-0.166-0.0752-0.3311-0.1025-0.4971L37.3506,56.0577c-0.0645-0.3877-0.1445-0.9277-0.209-1.3184
			c-0.3643-2.1719-0.0771-4.415,0.8281-6.4863c1.1162-2.5547,3.167-4.957,6.0967-7.1387c2.4727-1.8428,5.4814-3.4795,9.1992-5.0029
			c3.4092-1.3955,7.1455-2.5547,11.4229-3.5439c8.1162-1.877,16.5459-2.8877,25.0547-3.0049
			c0.7881-0.0107,1.5771-0.0166,2.3672-0.0166c8.376,0,16.2471,0.6494,23.3936,1.9287c9.3184,1.668,16.4043,3.9736,22.3018,7.2549
			c4.0625,2.2607,10.8555,7.1406,10.7021,14.4238l-0.4287,0.0723l0.4287-0.0127l0.0068,0.0752l-0.0049,0.0908
			c-0.0879,1.0283-0.1094,1.2539-0.2139,1.7461l-13.834,84.4229c-0.0527,0.3145-0.1279,0.624-0.2217,0.9326
			c-0.1436,0.5088-0.2393,0.7646-0.5332,1.4287c-0.124,0.2852-0.4639,0.9365-0.8301,1.4775
			c-1.0127,1.498-2.0576,2.4609-2.9463,3.2061c-1.5039,1.2637-3.2656,2.2725-3.9531,2.6475
			c-2.3838,1.2871-4.3799,2.0303-5.3389,2.3877c-3.6318,1.3506-8.3613,2.5244-12.9844,3.2217l-0.6104,0.0908
			C102.5303,155.6123,97.7783,155.9541,92.9238,155.9541z"/>
		<path fill="#808285" d="M92.1097,30.046c7.7972,0,15.6481,0.5496,23.3063,1.9208c7.6367,1.3672,15.3926,3.4414,22.1465,7.1993
			c5.2755,2.9355,10.5781,7.6914,10.4453,13.9765c0,0.0419,0.0037,0.0975,0.0052,0.144c-0.0014-0.0199-0.0038-0.0419-0.0048-0.0592
			c-0.0001-0.0042-0.0003-0.0083-0.0004-0.0125c0,0.0157,0,0.0316,0,0.0316s0-0.0085,0-0.0316c0,0.0038,0.0001,0.008,0.0004,0.0125
			c0.0015,0.0505,0.0015,0.1011,0.0015,0.1515c-0.0839,0.9649-0.1035,1.1739-0.2031,1.6426l-13.838,84.4453
			c-0.0488,0.291-0.1191,0.5801-0.207,0.8672c-0.1387,0.4922-0.2246,0.7246-0.5117,1.3731
			c-0.1211,0.2793-0.4473,0.8965-0.787,1.4004c-0.9747,1.4414-1.9883,2.3769-2.8536,3.1015
			c-1.5351,1.291-3.3515,2.3086-3.871,2.5918c-2.3575,1.2735-4.3321,2.0078-5.2812,2.3613c-3.5918,1.336-8.2832,2.5-12.877,3.1934
			c-0.2031,0.0293-0.4042,0.0606-0.6074,0.0898c-4.6359,0.6906-9.3464,1.0085-14.0493,1.0085c-1.881,0-3.761-0.0509-5.6343-0.1491
			c-7.037-0.3672-14.1914-1.3789-20.8535-3.6445c-3.2441-1.1016-6.4707-2.4785-9.2422-4.4531
			c-2.4883-1.7715-4.8437-4.1543-5.5371-7.1328c0.0039,0.0156,0.0098,0.0312,0.0156,0.0488
			c-0.0175-0.0625-0.0332-0.125-0.0488-0.1875c-0.0037-0.0171-0.0093-0.0322-0.0133-0.0473
			c0.004,0.0151,0.0096,0.0302,0.0133,0.0453c-0.037-0.1543-0.0703-0.3066-0.0957-0.4609c0,0-12.0098-73.2832-13.6836-83.4961
			c-0.1269-0.7656-0.0781-0.5254-0.209-1.3184c-0.3476-2.0761-0.0644-4.2441,0.793-6.205c1.2227-2.7989,3.459-5.0918,5.9375-6.9375
			c2.7559-2.0547,5.8867-3.6289,9.0898-4.9414c3.6602-1.4981,7.4786-2.625,11.3458-3.5196
			c8.1581-1.8867,16.5585-2.8769,24.9492-2.9922C90.5362,30.0516,91.3222,30.046,92.1097,30.046 M148.013,53.2866
			c0.0009,0.0127,0.0013,0.0245,0.0006,0.0337C148.0136,53.3099,148.0134,53.2985,148.013,53.2866 M51.6093,139.8868
			c0.0001,0.0005,0.0002,0.001,0.0004,0.0015C51.6095,139.8878,51.6094,139.8873,51.6093,139.8868 M92.1097,29.046
			c-0.7922,0-1.5828,0.0056-2.3737,0.0166c-8.5443,0.1174-17.0095,1.1328-25.1606,3.0178
			c-4.3034,0.9955-8.0649,2.1627-11.4993,3.5684c-3.7576,1.5397-6.8024,3.1965-9.3087,5.0652
			c-2.9997,2.2338-5.1047,4.7031-6.2562,7.3389c-0.9445,2.1598-1.2429,4.5011-0.8629,6.7704
			c0.0635,0.3846,0.0836,0.5195,0.1031,0.651c0.0206,0.1383,0.0405,0.2729,0.1056,0.6658l13.6833,83.4943
			c0.0278,0.1689,0.0632,0.335,0.103,0.5028l-0.0022,0.0005l0.0012,0.0045l0.0006,0.0023l0.0046,0.0173l0.0106,0.0357
			c0.007,0.0294,0.0157,0.0648,0.0257,0.1031l-0.0018,0.0004c0.6478,2.7824,2.6432,5.38,5.9311,7.7207
			c2.4867,1.7717,5.5057,3.2288,9.5006,4.5854c6.063,2.0618,12.9725,3.271,21.1229,3.6962c1.904,0.0999,3.8173,0.1505,5.6865,0.1505
			c4.8793,0,9.6558-0.343,14.1966-1.0194l0.3151-0.0465l0.2878-0.0426c4.6615-0.7036,9.4277-1.8863,13.0828-3.2459
			c0.9782-0.3643,2.996-1.1158,5.4079-2.4187c0.7042-0.3839,2.5005-1.4122,4.0394-2.7063c0.914-0.7653,1.9911-1.7579,3.0385-3.3067
			c0.3615-0.536,0.7209-1.205,0.8761-1.5627c0.2994-0.6762,0.4041-0.9578,0.5568-1.4996c0.0967-0.3153,0.1765-0.6499,0.2307-0.9732
			l13.8385-84.4489c0.106-0.4938,0.1286-0.7531,0.2125-1.7176l0.0038-0.0433v-0.0288l0.0012,0l0.0052-0.0709l-0.0038-0.0723
			l-0.0001-0.0027l-0.0025-0.0606c0.1573-7.5681-6.7997-12.5791-10.9609-14.8947c-5.9469-3.3089-13.0826-5.6316-22.4565-7.3098
			C108.4158,29.6975,100.5151,29.046,92.1097,29.046L92.1097,29.046z"/>
	</g>
	<g>
		<g>
			<path fill="#F58020" d="M60.1787,130.8731c4.875-8.25,7.6211-12.4873,13.6933-21.3653
				c-6.4277-9.5566-12.8867-19.0927-19.3593-28.6191c5.289,1.5371,7.9668,2.1709,13.3525,3.165
				c6.2363,8.8731,12.4688,17.7471,18.5781,26.709c-6.5224,9.5069-9.5127,14.0323-14.8916,22.8057
				C66.9648,132.7217,64.6845,132.1817,60.1787,130.8731z"/>
			<path fill="#9A6733" d="M75.3818,134.21c5.5371-8.958,8.6035-13.584,15.2676-23.3086
				c-6.0039-8.7646-12.1406-17.4326-18.2871-26.0967c5.4082,0.8135,8.1299,1.084,13.5761,1.3555
				c11.0655,15.2754,21.8057,30.6562,31.8272,46.6387c-4.5635,1.0009-6.8662,1.3867-11.4883,1.9257
				c-3.5576-5.7148-5.4512-8.6396-9.4463-14.6523c-4.1631,6.2842-6.1435,9.335-9.8838,15.293
				C82.3076,135.1348,79.9883,134.9024,75.3818,134.21z"/>
			<path fill="#F58020" d="M113.6875,119.3682c-1.9141-2.9268-2.9043-4.4092-4.9483-7.415
				c7.7549-0.9922,11.6143-1.7901,19.1826-3.9903c-0.3779,3.333-0.5644,4.999-0.9423,8.3321
				C121.7187,117.8243,119.0517,118.4385,113.6875,119.3682z"/>
			<path fill="#F58020" d="M106.1455,108.167c-2.1084-3.0488-3.1953-4.5937-5.4287-7.7334
				c9.6894-0.5859,19.3017-2.2627,28.624-4.9668c-0.3779,3.333-0.5645,4.9991-0.9424,8.3321
				C119.6318,106.3457,115.1465,107.2178,106.1455,108.167z"/>
		</g>
	</g>
	<path fill="#E6E7E8" d="M148.0078,53.2149c0,0.0273,0.0078,0.0547,0.0058,0.082c0-0.0508-0.0058-0.1016-0.0058-0.1543
		c0.1347-6.2851-5.168-11.041-10.4453-13.9765c-6.7539-3.7579-14.5098-5.8321-22.1446-7.1993
		c-8.4316-1.5097-17.0976-2.0234-25.6679-1.9043c-8.3907,0.1153-16.791,1.1055-24.9492,2.9922
		c-3.8672,0.8946-7.6836,2.0215-11.3458,3.5196c-3.2031,1.3125-6.3339,2.8867-9.0898,4.9414
		c-2.4766,1.8457-4.7148,4.1386-5.9375,6.9375c-1.3535,3.1015-1.2773,6.7226,0.4648,9.6738
		c1.7383,2.9433,4.6895,5.1172,7.6583,6.8555c3.3417,1.957,6.9863,3.4062,10.6992,4.582c7.9238,2.5098,16.2109,3.8574,24.5195,4.5
		c8.5723,0.6621,17.2168,0.5508,25.7676-0.3457c8.1855-0.8574,16.4179-2.4356,24.1035-5.3203
		c3.5625-1.336,7.0371-3.0098,10.0937-5.2266c2.7305-1.9805,5.2071-4.543,5.9864-7.8144c0.0097-0.0469,0.0625-0.1797,0.0625-0.2266
		c0.1211-0.5508,0.1367-0.7129,0.2265-1.752C148.0097,53.3243,148.0097,53.2696,148.0078,53.2149
		C148.0078,53.2559,148.0078,53.2559,148.0078,53.2149C148.0078,53.2422,148.0078,53.2696,148.0078,53.2149z"/>
	<path fill="#58595B" d="M93.4765,36.4707c-22.9238-0.1523-41.832,6.7969-42.2324,15.5196
		c-0.4004,8.7246,17.8594,15.9199,40.7832,16.0742c22.9238,0.1504,41.832-6.7969,42.2324-15.5215
		C134.6582,43.8184,116.4004,36.6231,93.4765,36.4707z"/>
	<path fill="#F58020" d="M130.2265,57.9922c-0.0429,0.0371-0.08,0.0703-0.1132,0.0977c-0.7266,0.6211-1.4512,1.1289-2.0352,1.5039
		c-0.4356,0.2734-0.8965,0.5449-1.3945,0.8125c-0.0332,0.0195-0.0664,0.0371-0.1016,0.0566
		c-0.8633,0.461-1.8125,0.9102-2.8418,1.3418c-0.0664,0.0274-0.1289,0.0567-0.1934,0.084
		c-5.0644,2.1016-12.0117,3.8145-20.0371,4.6406c-1.5722,0.1563-3.289,0.293-4.6757,0.3692
		c-2.1211,0.1152-3.9532,0.1543-5.2012,0.164c-0.541,0.0039-1.084,0.0059-1.6328,0c-17.9727-0.164-31.5879-4.4492-36.7227-9.1093
		c5.3535-6.043,20.5-10.3457,38.1485-10.2286C110.625,47.8399,125.0625,52.1192,130.2265,57.9922z"/>
</g>
</svg>
