<?xml version="1.0" encoding="utf-8"?>
<!-- Generator: Adobe Illustrator 18.1.1, SVG Export Plug-In . SVG Version: 6.00 Build 0)  -->
<svg version="1.1" id="XMLID_1_" xmlns="http://www.w3.org/2000/svg" xmlns:xlink="http://www.w3.org/1999/xlink" x="0px" y="0px"
	 viewBox="0 0 185.5 185.501" enable-background="new 0 0 185.5 185.501" xml:space="preserve">
<g id="Windows_Phone_8">
	<g id="C_2_">
		<circle fill="#9A60A7" cx="92.75" cy="92.751" r="92.75"/>
		<g>
			<g>
				<path fill="#D1D3D4" d="M92.9209,155.9541c-1.8594,0-3.7627-0.0498-5.6582-0.1489c-8.1084-0.4243-14.9746-1.625-20.9902-3.6709
					c-3.9502-1.3433-6.9277-2.7793-9.3711-4.519c-3.1855-2.27-5.1152-4.769-5.7344-7.4277l0.0039-0.001
					c-0.0127-0.0439-0.0234-0.0879-0.0332-0.1318l0.4834-0.1211l-0.2676,0.0562l-0.2158,0.0649
					c-0.001-0.0039-0.0068-0.0186-0.0068-0.0186l0.002-0.0005c-0.041-0.1748-0.0732-0.3276-0.0986-0.4819L37.3487,56.0586
					L37.25,55.4297c-0.0215-0.1436-0.04-0.2705-0.1104-0.689c-0.3633-2.1689-0.0771-4.4121,0.8281-6.4863
					c1.1162-2.5537,3.168-4.9556,6.0967-7.1396c2.4775-1.8462,5.4873-3.4824,9.2012-5.0024
					c3.416-1.3979,7.1523-2.5576,11.4229-3.5449c8.1191-1.877,16.5479-2.8882,25.0527-3.0049
					c0.7832-0.0107,1.5674-0.0161,2.3516-0.0161c8.3838,0,16.2607,0.6484,23.4111,1.9282
					c9.3174,1.6685,16.4033,3.9736,22.2998,7.2544c4.0625,2.2617,10.8555,7.1431,10.7021,14.4253l-0.4297,0.0723l0.4297-0.0132
					l0.0068,0.0752l-0.0049,0.0903c-0.0879,1.0293-0.1094,1.2554-0.2139,1.7466l-13.834,84.4233
					c-0.0527,0.3145-0.1279,0.6245-0.2227,0.9321c-0.1416,0.5063-0.2373,0.7622-0.5322,1.4287
					c-0.124,0.2861-0.4648,0.938-0.8301,1.4785c-1.0117,1.4956-2.0557,2.459-2.9443,3.2046
					c-1.5137,1.272-3.2705,2.2754-3.9561,2.6475c-2.4053,1.2993-4.3896,2.0361-5.3438,2.3906
					c-3.6182,1.3467-8.3477,2.52-12.9766,3.2192l-0.6104,0.0908C102.5303,155.6133,97.7784,155.9541,92.9209,155.9541z"/>
			</g>
			<g>
				<path fill="#58595B" d="M92.092,30.0462c7.8027,0,15.6608,0.5494,23.3241,1.9206c7.6347,1.3672,15.3906,3.4415,22.1445,7.1993
					c5.2754,2.9365,10.5781,7.6913,10.4453,13.9775c0,0.0417,0.0038,0.098,0.0052,0.1454
					c-0.0013-0.0202-0.0038-0.0425-0.0048-0.0601c-0.0001-0.0043-0.0002-0.0087-0.0004-0.013c0,0.0158,0,0.0316,0,0.0316
					s0-0.0085,0-0.0316c0,0.0039,0.0002,0.0083,0.0004,0.013c0.0015,0.0503,0.0015,0.0998,0.0015,0.1501
					c-0.084,0.9658-0.1036,1.1748-0.2032,1.6425l-13.8379,84.4463c-0.0488,0.291-0.1191,0.5801-0.207,0.8661
					c-0.1387,0.4932-0.2245,0.7246-0.5117,1.3731c-0.1211,0.2793-0.4473,0.8974-0.7871,1.4013
					c-0.9746,1.4405-1.9883,2.377-2.8516,3.1016c-1.5351,1.29-3.3535,2.3086-3.873,2.5908
					c-2.3574,1.2735-4.3301,2.0088-5.2793,2.3614c-3.5918,1.3369-8.2852,2.5-12.877,3.1933
					c-0.2031,0.0303-0.4062,0.0606-0.6093,0.0908c-4.6368,0.6907-9.3477,1.0081-14.0506,1.0081
					c-1.8799,0-3.7592-0.0507-5.6311-0.1486c-7.0391-0.3682-14.1933-1.3789-20.8555-3.6445
					c-3.2421-1.1026-6.4707-2.4795-9.2421-4.4531c-2.4864-1.7715-4.8438-4.1553-5.5372-7.1338
					c0.0059,0.0165,0.0118,0.0322,0.0176,0.0488c-0.0176-0.0625-0.0351-0.125-0.0488-0.1875
					c-0.0022-0.0093-0.005-0.0182-0.0078-0.0271c-0.033-0.1449-0.064-0.2899-0.088-0.4358c0,0-12.0117-73.2822-13.6856-83.4951
					c-0.125-0.7656-0.0761-0.5264-0.2089-1.3193c-0.3477-2.0752-0.0625-4.2432,0.7929-6.2041
					c1.2246-2.7999,3.461-5.0918,5.9375-6.9385c2.7559-2.0536,5.8867-3.6288,9.0918-4.9405
					c3.6602-1.498,7.4766-2.6259,11.3457-3.5205c8.1563-1.8857,16.5567-2.8769,24.9473-2.9922
					C90.529,30.0517,91.3096,30.0462,92.092,30.0462 M148.0112,53.289c0.0009,0.012,0.0012,0.0233,0.0006,0.0323
					C148.0118,53.3113,148.0115,53.3003,148.0112,53.289 M51.6094,139.8877c0.0017,0.007,0.0038,0.0139,0.006,0.0208
					c0.002,0.0084,0.0038,0.0167,0.0057,0.0251C51.6172,139.918,51.6133,139.9034,51.6094,139.8877 M92.092,29.0462
					c-0.7869,0-1.5721,0.0056-2.3577,0.0164c-8.5403,0.1173-17.0049,1.1326-25.1588,3.0178
					c-4.297,0.9936-8.0583,2.1611-11.4992,3.5693c-3.7535,1.5361-6.799,3.1926-9.3105,5.0641
					c-2.9995,2.2368-5.1043,4.7062-6.2562,7.3397c-0.9442,2.1643-1.2424,4.505-0.863,6.77c0.0691,0.4126,0.0877,0.538,0.1086,0.6793
					c0.0192,0.1293,0.0402,0.2713,0.0997,0.6359l13.6857,83.4957c0.0273,0.1661,0.0621,0.3306,0.0995,0.495l-0.001,0.0002
					l0.001,0.004l0.0073,0.0283l0.0002-0.0001l0.0013,0.006l0.0059,0.019c0.0089,0.0378,0.0186,0.0756,0.0287,0.1133l-0.0031,0.0008
					c0.6474,2.7809,2.6428,5.3788,5.9308,7.7215c2.4839,1.7688,5.5026,3.2258,9.5004,4.5853
					c6.0596,2.0607,12.9697,3.2698,21.1252,3.6965c1.9033,0.0995,3.8155,0.15,5.6833,0.15c4.8818,0,9.6588-0.3428,14.1979-1.019
					l0.4793-0.0714l0.1301-0.0194c4.6621-0.7039,9.4283-1.8867,13.0784-3.2452c0.9643-0.3582,2.9721-1.104,5.4058-2.4188
					c0.7006-0.3806,2.4922-1.4036,4.041-2.7051c0.9143-0.7673,1.9905-1.7606,3.0366-3.3068
					c0.3611-0.5355,0.7208-1.2051,0.8763-1.5639c0.3003-0.6782,0.405-0.96,0.5569-1.5002c0.0963-0.3122,0.1761-0.6469,0.2305-0.9715
					l13.8385-84.4499c0.1061-0.4925,0.1287-0.752,0.2126-1.7176l0.0038-0.0432v-0.0349h0.0017l0.0044-0.0663l-0.0036-0.0709
					l-0.0026-0.0641c0.1573-7.5654-6.7997-12.5775-10.9608-14.8937c-5.9468-3.3087-13.0818-5.6315-22.4547-7.3099
					C108.4118,29.6977,100.5052,29.0462,92.092,29.0462L92.092,29.0462z"/>
			</g>
		</g>
		<path fill="#E6E7E8" d="M148.0059,53.2159c0,0.0273,0.0078,0.0547,0.0059,0.082c0-0.0518-0.0059-0.1025-0.0059-0.1543
			c0.1348-6.2861-5.168-11.041-10.4453-13.9775c-6.7539-3.7578-14.5098-5.8321-22.1445-7.1993
			c-8.4317-1.5087-17.0957-2.0224-25.6661-1.9043c-8.3925,0.1153-16.7929,1.1065-24.9492,2.9922
			c-3.8672,0.8946-7.6855,2.0225-11.3457,3.5205c-3.2051,1.3116-6.3359,2.8868-9.0898,4.9405
			c-2.4785,1.8467-4.7149,4.1386-5.9375,6.9385c-1.3555,3.1015-1.2793,6.7216,0.4629,9.6728
			c1.7383,2.9434,4.6914,5.1182,7.6601,6.8564c3.3418,1.957,6.9844,3.4053,10.6973,4.5811c7.9258,2.5107,16.2109,3.8574,24.5195,4.5
			c8.5723,0.6621,17.2188,0.5508,25.7676-0.3447c8.1875-0.8574,16.418-2.4355,24.1035-5.3203
			c3.5625-1.3369,7.0371-3.0098,10.0938-5.2275c2.7304-1.9805,5.207-4.542,5.9863-7.8144c0.0098-0.0469,0.0625-0.1797,0.0625-0.2256
			c0.1211-0.5518,0.1367-0.7139,0.2266-1.7529C148.0079,53.3243,148.0079,53.2706,148.0059,53.2159
			C148.0059,53.2569,148.0059,53.2569,148.0059,53.2159C148.0059,53.2432,148.0059,53.2706,148.0059,53.2159z"/>
		<path fill="#A7A9AC" d="M93.4747,36.4708c-22.9239-0.1524-41.8321,6.7968-42.2325,15.5205
			c-0.3984,8.7246,17.8594,15.9199,40.7832,16.0732c22.9239,0.1514,41.8321-6.7969,42.2325-15.5215
			C134.6563,43.8194,116.3985,36.6231,93.4747,36.4708z"/>
		<path fill="#682A7A" d="M130.2247,57.9922c-0.0411,0.0371-0.0801,0.0703-0.1133,0.0986
			c-0.7266,0.6211-1.4512,1.1279-2.0352,1.5029c-0.4355,0.2744-0.8965,0.5459-1.3926,0.8135
			c-0.0332,0.0195-0.0664,0.0371-0.1035,0.0566c-0.8613,0.46-1.8125,0.9092-2.8418,1.3418
			c-0.0644,0.0274-0.1269,0.0557-0.1933,0.083c-5.0645,2.1025-12.0117,3.8144-20.0371,4.6416
			c-1.5723,0.1553-3.2871,0.293-4.6758,0.3691c-2.1211,0.1152-3.9531,0.1533-5.1992,0.1641c-0.543,0.0039-1.086,0.0049-1.6329,0
			c-17.9746-0.1641-31.5878-4.4492-36.7226-9.1094c5.3535-6.0429,20.498-10.3458,38.1465-10.2295
			C110.6231,47.8399,125.0625,52.1192,130.2247,57.9922z"/>
	</g>
	<g>
		<g>
			<g transform="matrix(0.91521282,0,0,0.91521282,136.33212,-206.23114)">
				<g transform="translate(109.60155,-54.548234)">
					<g>
						<path fill="#682A7A" d="M-187.0725,381.3263
							c9.1562,1.4719,13.9269,1.6731,23.5142,0.9657c0.1313,8.5197,0.1943,12.7803,0.3244,21.3
							c-9.0324-0.414-13.5641-1.1422-22.332-3.6381C-186.1676,392.5029-186.4696,388.7773-187.0725,381.3263z M-163.2178,406.0451
							c0.1344,8.5277,0.2027,12.7906,0.3361,21.3183c-8.421-1.646-12.6892-2.9509-21.028-6.5703
							c-0.5944-7.4527-0.892-11.1772-1.4864-18.6299C-176.6817,404.7498-172.181,405.5255-163.2178,406.0451z M-160.6634,382.007
							c11-1.2287,21.7834-4.1113,31.9683-8.4375c-0.8291,10.3918-1.242,15.5883-2.0711,25.9801
							c-11.6606,3.478-17.7502,4.2986-29.7467,4.1076C-160.5717,394.9982-160.6037,390.6665-160.6634,382.007z M-130.9967,402.5059
							c-0.828,10.3459-1.2398,15.5178-2.0679,25.8633c-10.5411,1.4298-16.1282,1.3349-27.284-0.5811
							c-0.0746-8.5955-0.112-12.8935-0.1888-21.4889C-148.6156,406.6053-142.5655,405.8478-130.9967,402.5059z"/>
					</g>
				</g>
			</g>
		</g>
	</g>
</g>
</svg>
